﻿
DisplayName "Labyrinth of Chaos"



EVENT   2
 PAGE   1
  ChangeSwitch(41,41,0)
  ChangeSwitch(52,52,0)
  ChangeVariable(1002,1002,0,0,2)
  ChangeVariable(45,45,0,0,25)
  ChangeSaveEnabled(0)
  ChangeSwitch(2147,2147,0)
  If(1,122,0,51,1)
   ShowMessageFace("",0,0,2,1)
   ShowMessage("第何階層から始めますか？")
   355("ex_choice_add(\"第1階層\",1)")
   655("ex_choice_add(\"第51階層\",2)")
   655("ex_choice_add(\"第101階層\",3,")
   655("\"v[122]>100\",0)")
   655("ex_choice_add(\"第201階層\",4,")
   655("\"v[122]>200\",0)")
   355("ex_choice_show(0,11,[0,0])")
   If(1,9,0,1,2)
    ChangeVariable(121,121,0,0,0)
    RunCommonEvent(901)
    EndEventProcessing()
    0()
   EndIf()
   If(1,9,0,2,0)
    ChangeVariable(121,121,0,0,50)
    RunCommonEvent(901)
    EndEventProcessing()
    0()
   EndIf()
   If(1,9,0,3,0)
    ChangeVariable(121,121,0,0,100)
    RunCommonEvent(901)
    EndEventProcessing()
    0()
   EndIf()
   If(1,9,0,4,0)
    ChangeVariable(121,121,0,0,200)
    RunCommonEvent(901)
    EndEventProcessing()
    0()
   EndIf()
   0()
  Else()
   ChangeVariable(121,121,0,0,0)
   RunCommonEvent(901)
   EndEventProcessing()
   0()
  EndIf()
  0()



EVENT   15
 PAGE   1
  250(bytes(0x04,0x08,0x6f,0x3a,0x0c,0x52,0x50,0x47,0x3a,0x3a,0x53,0x45,0x08,0x3a,0x0a,0x40,0x6e,0x61,0x6d,0x65,0x49,0x22,0x0b,0x4d,0x61,0x67,0x69,0x63,0x32,0x06,0x3a,0x06,0x45,0x54,0x3a,0x0b,0x40,0x70,0x69,0x74,0x63,0x68,0x69,0x69,0x3a,0x0c,0x40,0x76,0x6f,0x6c,0x75,0x6d,0x65,0x69,0x55))
  TeleportPlayer(0,576,18,52,8,1)
  EndEventProcessing()
  0()



EVENT   16
 PAGE   1
  250(bytes(0x04,0x08,0x6f,0x3a,0x0c,0x52,0x50,0x47,0x3a,0x3a,0x53,0x45,0x08,0x3a,0x0a,0x40,0x6e,0x61,0x6d,0x65,0x49,0x22,0x0b,0x4d,0x61,0x67,0x69,0x63,0x32,0x06,0x3a,0x06,0x45,0x54,0x3a,0x0b,0x40,0x70,0x69,0x74,0x63,0x68,0x69,0x69,0x3a,0x0c,0x40,0x76,0x6f,0x6c,0x75,0x6d,0x65,0x69,0x55))
  TeleportPlayer(0,576,18,52,8,1)
  EndEventProcessing()
  0()



EVENT   1
 PAGE   1
  ShowMessageFace("sinigami_fc1",0,0,2,1)
  ShowMessage("\\n<Reaper>ここは、混沌の迷宮…… 終着なきカオスの特異点だ。")
  ShowChoices(strings("最高到達階層を聞く","混沌の迷宮の説明を聞く","用はない"),3)
  IfPlayerPicksChoice(0,null)
   If(1,122,0,0,0)
    ShowMessageFace("sinigami_fc1",0,0,2,2)
    ShowMessage("\\n<Reaper>最高到達階層は記録されていない…… まだ未踏のようだな。")
    0()
   Else()
    ShowMessageFace("sinigami_fc1",0,0,2,3)
    ShowMessage("\\n<Reaper>最高到達階層は第\\V[122]層だ。")
    0()
   EndIf()
   0()
  IfPlayerPicksChoice(1,null)
   ChangeSwitch(2147,2147,0)
   ShowMessageFace("sinigami_fc1",0,0,2,4)
   ShowMessage("\\n<Reaper>混沌の迷宮とは、果てしないダンジョン。 ゴールは存在せず、延々と奥に潜っていく事となる。")
   ShowMessageFace("sinigami_fc1",0,0,2,5)
   ShowMessage("\\n<Reaper>内部のフロア構成は、ダンジョンに入るたびに変わる。 宝箱の配置なども変化するから、マップの記憶に意味はない。")
   ShowMessageFace("sinigami_fc1",0,0,2,6)
   ShowMessage("\\n<Reaper>深く潜れば潜るほど、登場する敵は強くなっていく。 同じモンスターでも、深層ほど能力が高くなるのだ。")
   ShowMessageFace("sinigami_fc1",0,0,2,7)
   ShowMessage("\\n<Reaper>また特定の階層では、ボスが道を阻んでくる。 そいつを倒さなければ、先に進むことは出来ないのだ。")
   ShowMessageFace("sinigami_fc1",0,0,2,8)
   ShowMessage("\\n<Reaper>そして深く潜るほど、宝箱から貴重なアイテムが獲得できる。 深層になると、地上には存在しないような逸品もあるぞ。")
   ShowMessageFace("sinigami_fc1",0,0,2,9)
   ShowMessage("\\n<Reaper>なお、ダンジョン内では特定の階層でしかセーブできない。 重要な事なので、覚えておくがいい。")
   ShowMessageFace("sinigami_fc1",0,0,2,10)
   ShowMessage("\\n<Reaper>ダンジョンから脱出したい場合、中にいる白兎に頼め。 ……まあ、死んで戻る事も出来るがな。")
   ShowMessageFace("sinigami_fc1",0,0,2,11)
   ShowMessage("\\n<Reaper>一度脱出して、再びダンジョンに挑む場合…… 原則的には、また第1階層からになるので注意が必要だ。")
   ShowMessageFace("sinigami_fc1",0,0,2,12)
   ShowMessage("\\n<Reaper>これ以上は、アドバイスしてやる義理はない。 そこで暇そうにぶらついている白兎にでも聞け。")
   ShowMessageFace("sinigami_fc1",0,0,2,13)
   ShowMessage("\\n<Reaper>先も言ったように、このダンジョンにゴールはない。 どこまで潜る事ができるか、己の限界に挑むがいい。")
   0()
  IfPlayerPicksChoice(2,null)
   0()
  404()
  0()



EVENT   4
 PAGE   1
  If(0,2147,1)
   ShowMessageFace("sirousagi_fc1",0,0,2,1)
   ShowMessage("\\n<White Rabbit>先に、死神から混沌の迷宮の説明を聞いた方がいいよ。 ボクからのアドバイスは、その後にねっ♪")
   EndEventProcessing()
   0()
  EndIf()
  ChangeVariable(1049,1049,1,0,1)
  If(1,1049,0,11,0)
   ChangeVariable(1049,1049,0,0,1)
   0()
  EndIf()
  If(1,1049,0,1,0)
   ShowMessageFace("sirousagi_fc1",0,0,2,2)
   ShowMessage("\\n<White Rabbit>ここに出て来る魔物は、みんな見覚えがあるだろうけど…… 強さまで同じだとは思わない方がいいよ。")
   ShowMessageFace("sirousagi_fc1",0,0,2,3)
   ShowMessage("\\n<White Rabbit>ゴリ押しは通じないだろうから、耐性を考えるのが大事。 相手の弱点属性を攻めていけば有利に戦えるはずだよ。")
   ShowMessageFace("sirousagi_fc1",0,0,2,4)
   ShowMessage("\\n<White Rabbit>同じ外見でも、外界の魔物とは属性耐性が異なるから…… その点、注意してね。")
   ShowMessageFace("sirousagi_fc1",0,0,2,5)
   ShowMessage("\\n<White Rabbit>物理耐性なんて、外の魔物じゃ見た事ないんじゃないかな？ 物理攻撃が通じない相手には、魔法で攻めるようにしてね。")
   EndEventProcessing()
   0()
  EndIf()
  If(1,1049,0,2,0)
   ShowMessageFace("sirousagi_fc1",0,0,2,6)
   ShowMessage("\\n<White Rabbit>10階ごとに、中ボスが登場するんだ。 中ボスを倒さないと、先に進むことはできないよ。")
   ShowMessageFace("sirousagi_fc1",0,0,2,7)
   ShowMessage("\\n<White Rabbit>でも、中ボスフロアにはボクもいるからね。 事前の回復やパーティ編成、転職くらいは助けてあげるよ。")
   ShowMessageFace("sirousagi_fc1",0,0,2,8)
   ShowMessage("\\n<White Rabbit>あと、中ボスフロアから進む時にセーブもできるんだ。 つまり、10階ごとにセーブできるって事になるね。")
   EndEventProcessing()
   0()
  EndIf()
  If(1,1049,0,3,0)
   ShowMessageFace("sirousagi_fc1",0,0,2,9)
   ShowMessage("\\n<White Rabbit>迷宮に出現する魔物は、カオス化した並行事象の断片。 会話はできないし、仲間にもならないから注意してね。")
   ShowMessageFace("sirousagi_fc1",0,0,2,10)
   ShowMessage("\\n<White Rabbit>一部の使用スキルなんかも、図鑑とは違う事があるよ。 属性耐性なんかも、図鑑より強力になってるしね。")
   ShowMessageFace("sirousagi_fc1",0,0,2,11)
   ShowMessage("\\n<White Rabbit>誘惑もしてこないし、負けた後の陵辱も省略…… ねぇ、ちょっとがっかりした？")
   EndEventProcessing()
   0()
  EndIf()
  If(1,1049,0,4,0)
   ShowMessageFace("sirousagi_fc1",0,0,2,12)
   ShowMessage("\\n<White Rabbit>外界の魔物より、耐性が強化されてるってのは言ったよね。 外ではあんまりお目に掛からない、物理耐性なんかもあるよ。")
   ShowMessageFace("sirousagi_fc1",0,0,2,13)
   ShowMessage("\\n<White Rabbit>だいたい、その魔物の得意技能は耐性も高いんだ。 戦士タイプだと物理に強くて、魔法タイプだと魔法に強い……")
   ShowMessageFace("sirousagi_fc1",0,0,2,14)
   ShowMessage("\\n<White Rabbit>だから戦士タイプには、魔法で攻めるべきだね。 たいてい快楽も有効だから……くやしい、でも感じちゃう。")
   ShowMessageFace("sirousagi_fc1",0,0,2,15)
   ShowMessage("\\n<White Rabbit>他にもヌルネバの奴とか、ゴースト系とかは物理に強いんだ。 ヌルネバは雷、ゴーストは炎で攻めると有利に戦えるよ。")
   ShowMessageFace("sirousagi_fc1",0,0,2,16)
   ShowMessage("\\n<White Rabbit>あらためて、イリアス神殿で各種族の耐性を聞いてごらん。 強化されてても、だいたいはその傾向に沿ってるはずだよ。")
   EndEventProcessing()
   0()
  EndIf()
  If(1,1049,0,5,0)
   ShowMessageFace("sirousagi_fc1",0,0,2,17)
   ShowMessage("\\n<White Rabbit>潜れば潜るほど、敵が強くなるってのは聞いたよね？ 100階以降は、さらに敵が強力になるんだ。")
   ShowMessageFace("sirousagi_fc1",0,0,2,18)
   ShowMessage("\\n<White Rabbit>見た事のある敵が、見た事のない技を使ってくるから注意。 とっても辛い戦いになると思うけど、がんばってね。")
   EndEventProcessing()
   0()
  EndIf()
  If(1,1049,0,6,0)
   ShowMessageFace("sirousagi_fc1",0,0,2,19)
   ShowMessage("\\n<White Rabbit>弓矢を持った敵や素早い敵は、攻撃命中率も高いよ。 こちらの回避率が高くても、相殺されるから注意してね。")
   ShowMessageFace("sirousagi_fc1",0,0,2,20)
   ShowMessage("\\n<White Rabbit>逆に、回避率が異常に高い敵の場合も…… 弓矢や銃みたいな、命中率が高い攻撃で捕捉可能だよ。")
   ShowMessageFace("sirousagi_fc1",0,0,2,21)
   ShowMessage("\\n<White Rabbit>あと、「魔力集中」や「精神集中」を使うと…… その直後の攻撃は、必ず当たる事も覚えておいてね。")
   EndEventProcessing()
   0()
  EndIf()
  If(1,1049,0,7,0)
   ShowMessageFace("sirousagi_fc1",0,0,2,22)
   ShowMessage("\\n<White Rabbit>迷宮内では「エンカウント無効」やらの能力は効かないよ。 通常よりもエンカウント率を下げる事ができないから注意ね。")
   ShowMessageFace("sirousagi_fc1",0,0,2,23)
   ShowMessage("\\n<White Rabbit>難易度も、中のモンスターの強さには影響しないよ。 難易度を下げて挑むだなんて……考えてないよね？")
   EndEventProcessing()
   0()
  EndIf()
  If(1,1049,0,8,0)
   ShowMessageFace("sirousagi_fc1",0,0,2,24)
   ShowMessage("\\n<White Rabbit>聖属性や闇属性の技は、回避が不可能なんだ。 どれだけ回避率を高めても、必ず食らうから注意してね。")
   ShowMessageFace("sirousagi_fc1",0,0,2,25)
   ShowMessage("\\n<White Rabbit>もちろん、混沌属性のスキルも必中だよ。 まあ、そんなの使ってくる相手は超大物だけなんだけど。")
   ShowMessageFace("sirousagi_fc1",0,0,2,26)
   ShowMessage("\\n<White Rabbit>逆に、回避ばかりしてくるうっとうしい敵がいたら…… 聖属性や闇属性の必中スキルで吹っ飛ばしてやりなよ。")
   EndEventProcessing()
   0()
  EndIf()
  If(1,1049,0,9,0)
   ShowMessageFace("sirousagi_fc1",0,0,2,27)
   ShowMessage("\\n<White Rabbit>深層の敵は、補助魔法もけっこう使ってくるよ。 ただでさえ強いのに、強化までされたら厳しいよね？")
   ShowMessageFace("sirousagi_fc1",0,0,2,28)
   ShowMessage("\\n<White Rabbit>そういう場合、補助効果の無効化スキルを使おう！ 僧侶系の覚えるキャンセルや、獣系の凍てつく波動などだね。")
   ShowMessageFace("sirousagi_fc1",0,0,2,29)
   ShowMessage("\\n<White Rabbit>ただし、一部のボスはこうした補助無効スキルを使う事も。 こちらの強化効果が無効化されるから、注意してね。")
   EndEventProcessing()
   0()
  EndIf()
  If(1,1049,0,10,0)
   ShowMessageFace("sirousagi_fc1",0,0,2,30)
   ShowMessage("\\n<White Rabbit>100階ごとに、超強力なボスが出現するんだけど…… こいつは、戦わなくても先に進むことが出来るよ。")
   ShowMessageFace("sirousagi_fc1",0,0,2,31)
   ShowMessage("\\n<White Rabbit>でも超強力ボスを倒せば、とびきりレアなお宝をゲット！ 腕に自信があれば、挑んでみたらぁ？")
   ShowMessageFace("sirousagi_fc1",0,0,2,32)
   ShowMessage("\\n<White Rabbit>どうせ、歯が立たないだろうけど…… （君達なら、きっと打ち勝てるよ！）")
   ShowMessageFace("sirousagi_fc1",0,0,2,33)
   ShowMessage("\\n<White Rabbit>あっ、ごめ～ん♪♪♪ 本音と建前が逆になっちゃったぁ♪♪♪")
   ShowMessageFace("sirousagi_fc1",0,0,2,34)
   ShowMessage("\\n<White Rabbit>イラッとした？ ねぇねぇ、イラッとしたぁ……？")
   EndEventProcessing()
   0()
  EndIf()
  0()
